…
**In 2002, which states were observed at 7 locations?**

``` r
beh_risk %>% 
  filter(year == 2002) %>%
  group_by(state) %>% 
  distinct(state, county) %>%  
  summarise(county = n())
```

    ## # A tibble: 49 x 2
    ##    state county
    ##    <chr>  <int>
    ##  1 AK         1
    ##  2 AL         1
    ##  3 AR         1
    ##  4 AZ         2
    ##  5 CA         1
    ##  6 CO         4
    ##  7 CT         7
    ##  8 DC         1
    ##  9 DE         3
    ## 10 FL         7
    ## # ... with 39 more rows
…
Across the period under study (2002 - 2010), the states proportions that are awarded Poor, Fair, Good, Very Good, and Excellent, appear to cluster and stay consistent with previous years. Very good has the highest proportions in almost all years. Followed by Good, Excellent, Fair, and Poor, in descending order.

Problem 2
=========

**Describe the instacart data set.**

``` r
instacart
```

    ## # A tibble: 1,384,617 x 15
    ##    order_id product_id add_to_cart_ord… reordered user_id eval_set
    ##       <int>      <int>            <int>     <int>   <int> <chr>   
    ##  1        1      49302                1         1  112108 train   
    ##  2        1      11109                2         1  112108 train   
    ##  3        1      10246                3         0  112108 train   
    ##  4        1      49683                4         0  112108 train   
    ##  5        1      43633                5         1  112108 train   
    ##  6        1      13176                6         0  112108 train   
    ##  7        1      47209                7         0  112108 train   
    ##  8        1      22035                8         1  112108 train   
    ##  9       36      39612                1         0   79431 train   
    ## 10       36      19660                2         1   79431 train   
    ## # ... with 1,384,607 more rows, and 9 more variables: order_number <int>,
    ## #   order_dow <int>, order_hour_of_day <int>,
    ## #   days_since_prior_order <int>, product_name <chr>, aisle_id <int>,
    ## #   department_id <int>, aisle <chr>, department <chr>

The instacart data set appears to be data about online orders for groceries from a grocery chain. The data set is 15 columns by 1,384,617 rows. Each row represents a specific item ordered by a customer. The columns represent different information about each item ordered. Many of the items belong to the same order/cart/person as they have the same data values for order\_id, user\_id, order\_dow, order\_hour\_of\_the\_day, and days\_since\_prior\_order. Each item has a product\_id, a text name, what aisle it is found on, and in what department the product is registered under. For example, as the raw data stands now, row 6 contains product\_id 13176, A Bag of Organic Bananas, located in aisle 24 - fresh fruits, department 4 - produce. The data set also contains data on the user's habits/process in ordering: how often the user orders this item, how many orders they have placed, the order in which the item was added to the cart, and the time of week/day the order was placed.

**How many aisles are there, and which aisles are the most items ordered from?**

``` r
instacart %>% 
  distinct(aisle_id) %>% 
  arrange(desc(aisle_id))
```

    ## # A tibble: 134 x 1
    ##    aisle_id
    ##       <int>
    ##  1      134
    ##  2      133
    ##  3      132
    ##  4      131
    ##  5      130
    ##  6      129
    ##  7      128
    ##  8      127
    ##  9      126
    ## 10      125
    ## # ... with 124 more rows

``` r
instacart %>% 
  count(aisle_id) %>% 
  arrange(desc(n))
```

    ## # A tibble: 134 x 2
    ##    aisle_id      n
    ##       <int>  <int>
    ##  1       83 150609
    ##  2       24 150473
    ##  3      123  78493
    ##  4      120  55240
    ##  5       21  41699
    ##  6      115  36617
    ##  7       84  32644
    ##  8      107  31269
    ##  9       91  26240
    ## 10      112  23635
    ## # ... with 124 more rows

``` r
instacart %>% 
  filter(aisle_id %in% c(83, 24, 123))
```

    ## # A tibble: 379,575 x 15
    ##    order_id product_id add_to_cart_ord… reordered user_id eval_set
    ##       <int>      <int>            <int>     <int>   <int> <chr>   
    ##  1        1      10246                3         0  112108 train   
    ##  2        1      49683                4         0  112108 train   
    ##  3        1      13176                6         0  112108 train   
    ##  4        1      47209                7         0  112108 train   
    ##  5       36      43086                4         1   79431 train   
    ##  6       36      48679                7         1   79431 train   
    ##  7       36      46979                8         1   79431 train   
    ##  8       38      18159                2         0   42756 train   
    ##  9       38      21616                4         1   42756 train   
    ## 10       38      23622                5         0   42756 train   
    ## # ... with 379,565 more rows, and 9 more variables: order_number <int>,
    ## #   order_dow <int>, order_hour_of_day <int>,
    ## #   days_since_prior_order <int>, product_name <chr>, aisle_id <int>,
    ## #   department_id <int>, aisle <chr>, department <chr>
…
The mean hours of the day for each day of the week for ordering Pink Lady Apples and Coffee Ice Cream range from 11.36 to 15.38 (11:22am to 3:23pm).

Problem 3
=========

**Descirbe the ny\_noaa data set.**

``` r
ny_noaa
```

    ## # A tibble: 2,595,176 x 7
    ##    id          date        prcp  snow  snwd tmax  tmin 
    ##    <chr>       <date>     <int> <int> <int> <chr> <chr>
    ##  1 US1NYAB0001 2007-11-01    NA    NA    NA <NA>  <NA> 
    ##  2 US1NYAB0001 2007-11-02    NA    NA    NA <NA>  <NA> 
    ##  3 US1NYAB0001 2007-11-03    NA    NA    NA <NA>  <NA> 
    ##  4 US1NYAB0001 2007-11-04    NA    NA    NA <NA>  <NA> 
    ##  5 US1NYAB0001 2007-11-05    NA    NA    NA <NA>  <NA> 
    ##  6 US1NYAB0001 2007-11-06    NA    NA    NA <NA>  <NA> 
    ##  7 US1NYAB0001 2007-11-07    NA    NA    NA <NA>  <NA> 
    ##  8 US1NYAB0001 2007-11-08    NA    NA    NA <NA>  <NA> 
    ##  9 US1NYAB0001 2007-11-09    NA    NA    NA <NA>  <NA> 
    ## 10 US1NYAB0001 2007-11-10    NA    NA    NA <NA>  <NA> 
    ## # ... with 2,595,166 more rows
…
``` r
clean_nynoaa = ny_noaa %>% 
  separate(date, into = c("year", "month", "day"), sep = "-") %>% 
  mutate(
    prcp = prcp * 10,
    tmax = as.numeric(tmax),
    tmin = as.numeric(tmin))

clean_nynoaa %>% 
  group_by(snow) %>% 
  count(snow) %>% 
  arrange(desc(n))
```

    ## # A tibble: 282 x 2
    ## # Groups:   snow [282]
    ##     snow       n
    ##    <int>   <int>
    ##  1     0 2008508
    ##  2    NA  381221
    ##  3    25   31022
    ##  4    13   23095
    ##  5    51   18274
    ##  6    76   10173
    ##  7     8    9962
    ##  8     5    9748
    ##  9    38    9197
    ## 10     3    8790
    ## # ... with 272 more rows
…
